<?xml version="1.0" encoding="UTF-8"?>
<svg width="18px" height="18px" viewBox="0 0 18 18" version="1.1" xmlns="http://www.w3.org/2000/svg" xmlns:xlink="http://www.w3.org/1999/xlink">
    <!-- Generator: Sketch 46.2 (44496) - http://www.bohemiancoding.com/sketch -->
    <title>linkedin</title>
    <desc>Created with Sketch.</desc>
    <defs></defs>
    <g id="Symbols" stroke="none" stroke-width="1" fill="none" fill-rule="evenodd">
        <g id="linkedin" fill="#000000">
            <path d="M4.18993548,5.79077419 L0.576406452,5.79077419 C0.416032258,5.79077419 0.286083871,5.92078065 0.286083871,6.08109677 L0.286083871,17.6898194 C0.286083871,17.8501935 0.416032258,17.9801419 0.576406452,17.9801419 L4.18993548,17.9801419 C4.35030968,17.9801419 4.48025806,17.8501935 4.48025806,17.6898194 L4.48025806,6.08109677 C4.48025806,5.92078065 4.35030968,5.79077419 4.18993548,5.79077419 L4.18993548,5.79077419 Z" id="XMLID_802_"></path>
            <path d="M2.38447742,0.0198 C1.06966452,0.0198 0,1.08830323 0,2.40166452 C0,3.71560645 1.06966452,4.78451613 2.38447742,4.78451613 C3.69824516,4.78451613 4.76703871,3.71554839 4.76703871,2.40166452 C4.76709677,1.08830323 3.69824516,0.0198 2.38447742,0.0198 L2.38447742,0.0198 Z" id="XMLID_803_"></path>
            <path d="M13.3812,5.50225161 C11.9298774,5.50225161 10.8570194,6.12615484 10.2062903,6.83506452 L10.2062903,6.08109677 C10.2062903,5.92078065 10.0763419,5.79077419 9.91596774,5.79077419 L6.45538065,5.79077419 C6.29500645,5.79077419 6.16505806,5.92078065 6.16505806,6.08109677 L6.16505806,17.6898194 C6.16505806,17.8501935 6.29500645,17.9801419 6.45538065,17.9801419 L10.0610129,17.9801419 C10.2213871,17.9801419 10.3513355,17.8501935 10.3513355,17.6898194 L10.3513355,11.9461935 C10.3513355,10.010729 10.8770516,9.25670323 12.2262387,9.25670323 C13.6956194,9.25670323 13.8123871,10.4654903 13.8123871,12.0457742 L13.8123871,17.6898774 C13.8123871,17.8502516 13.9423355,17.9802 14.1027097,17.9802 L17.7096774,17.9802 C17.8700516,17.9802 18,17.8502516 18,17.6898774 L18,11.3222903 C18,8.44432258 17.4512323,5.50225161 13.3812,5.50225161 L13.3812,5.50225161 Z" id="XMLID_804_"></path>
        </g>
    </g>
</svg>